%YAML 1.1
%TAG !u! tag:unity3d.com,2011:
--- !u!114 &11400000
MonoBehaviour:
  m_ObjectHideFlags: 0
  m_CorrespondingSourceObject: {fileID: 0}
  m_PrefabInstance: {fileID: 0}
  m_PrefabAsset: {fileID: 0}
  m_GameObject: {fileID: 0}
  m_Enabled: 1
  m_EditorHideFlags: 0
  m_Script: {fileID: 11500000, guid: 8d29b5458d4f32c4e9849af821314646, type: 3}
  m_Name: PlayerState_Skip
  m_EditorClassIdentifier: 
  stateName: Skip
  transitionDuration: 0.1
  jumpForce: 7
