%YAML 1.1
%TAG !u! tag:unity3d.com,2011:
--- !u!114 &11400000
MonoBehaviour:
  m_ObjectHideFlags: 0
  m_CorrespondingSourceObject: {fileID: 0}
  m_PrefabInstance: {fileID: 0}
  m_PrefabAsset: {fileID: 0}
  m_GameObject: {fileID: 0}
  m_Enabled: 1
  m_EditorHideFlags: 0
  m_Script: {fileID: 1795359250, guid: 1cf430f187a0b40eda7f668318d8be23, type: 3}
  m_Name: MiniGameConfig
  m_EditorClassIdentifier: 
  ProjectConf:
    projectName: UnityBase
    Appid: wxa2b984057b4469d0
    CDN: http://192.168.10.66.1:7878
    assetLoadType: 1
    compressDataPackage: 0
    VideoUrl: 
    DST: D:/gitTest/unitybase/Build/WX
    StreamCDN: 
    bundleHashLength: 32
    bundlePathIdentifier: StreamingAssets;
    bundleExcludeExtensions: json;
    AssetsUrl: 
    MemorySize: 256
    HideAfterCallMain: 1
    preloadFiles: 
    Orientation: 1
    bgImageSrc: Assets/WX-WASM-SDK-V2/Runtime/wechat-default/images/background.jpg
    dataFileSubPrefix: 
    maxStorage: 200
    defaultReleaseSize: 31457280
    texturesHashLength: 8
    texturesPath: Assets/Textures
    needCacheTextures: 1
    loadingBarWidth: 240
    needCheckUpdate: 0
    disableHighPerformanceFallback: 0
  SDKOptions:
    UseFriendRelation: 0
    UseCompressedTexture: 0
    UseMiniGameChat: 0
    PreloadWXFont: 0
  CompileOptions:
    DevelopBuild: 0
    AutoProfile: 0
    ScriptOnly: 0
    Il2CppOptimizeSize: 1
    profilingFuncs: 1
    Webgl2: 0
    fbslim: 0
    DeleteStreamingAssets: 1
    ProfilingMemory: 0
    CleanBuild: 0
    CustomNodePath: 
    showMonitorSuggestModal: 1
    enableProfileStats: 0
    enableRenderAnalysis: 0
    iOSAutoGCInterval: 10000
  CompressTexture:
    halfSize: 0
    useDXT5: 0
    bundleSuffix: bundle
    parallelWithBundle: 0
    bundleDir: 
    dstMinDir: 
    debugMode: 0
    force: 0
  PlayerPrefsKeys: []
