%YAML 1.1
%TAG !u! tag:unity3d.com,2011:
--- !u!114 &1
MonoBehaviour:
  m_ObjectHideFlags: 0
  m_CorrespondingSourceObject: {fileID: 0}
  m_PrefabInstance: {fileID: 0}
  m_PrefabAsset: {fileID: 0}
  m_GameObject: {fileID: 0}
  m_Enabled: 1
  m_EditorHideFlags: 0
  m_Script: {fileID: 11500000, guid: e189374413a3f00468e49d51d8b27a09, type: 3}
  m_Name: 
  m_EditorClassIdentifier: 
  enable: 1
  useGlobalIl2cpp: 0
  hybridclrRepoURL: https://gitee.com/focus-creative-games/hybridclr
  il2cppPlusRepoURL: https://gitee.com/focus-creative-games/il2cpp_plus
  hotUpdateAssemblyDefinitions:
  - {fileID: 5897886265953266890, guid: dc31d3696f95d7a45bb73bc086d436fe, type: 3}
  - {fileID: 5897886265953266890, guid: 7a9b9d6cde816ba4389188a59d5868ea, type: 3}
  hotUpdateAssemblies: []
  preserveHotUpdateAssemblies: []
  hotUpdateDllCompileOutputRootDir: HybridCLRData/HotUpdateDlls
  externalHotUpdateAssembliyDirs: []
  strippedAOTDllOutputRootDir: HybridCLRData/AssembliesPostIl2CppStrip
  patchAOTAssemblies: []
  outputLinkFile: HybridCLRGenerate/link.xml
  outputAOTGenericReferenceFile: HybridCLRGenerate/AOTGenericReferences.cs
  maxGenericReferenceIteration: 10
  maxMethodBridgeGenericIteration: 10
