{
    "name": "ClientGame",
    "rootNamespace": "",
    "references": [
        "GUID:dc31d3696f95d7a45bb73bc086d436fe",
        "GUID:2025cc70936d28d4f87623a9ecef6331",
        "GUID:e34a5702dd353724aa315fb8011f08c3",
        "GUID:b25a4c2aeeab2b644a9acd3a3ce25e0b",
        "GUID:f51ebe6a0ceec4240a699833d6309b23",
        "GUID:75469ad4d38634e559750d17036d5f7c"
    ],
    "includePlatforms": [],
    "excludePlatforms": [],
    "allowUnsafeCode": false,
    "overrideReferences": false,
    "precompiledReferences": [],
    "autoReferenced": false,
    "defineConstraints": [],
    "versionDefines": [],
    "noEngineReferences": false
}